{
  "area_names": {
    "turkana": ["kakuma", "turkana"],
    "kilifi": [
      "g.e",
      "ge",
      "kilfi",
      "kilifi",
      "makongeni",
      "mnarani",
      "mtwapa",
      "office",
      "raibai",
      "ribe",
      "takaungu"
    ],
    "kinango kwale": [
      "amani",
      "bofu",
      "chibuga",
      "chidzivuni",
      "chidzuvini",
      "chigale",
      "chigato",
      "chigojoni",
      "chikole",
      "chikomani",
      "chikomeni",
      "chikuyu",
      "chilongoni",
      "chilumani",
      "chinguluni",
      "chizingo",
      "chizini",
      "doti",
      "dzivani",
      "dzovuni",
      "dzugwe",
      "gandini",
      "gona",
      "guro",
      "hanje",
      "kafuduni",
      "kalalani",
      "kaloleni",
      "kasemeni",
      "katundani",
      "kibandaogo",
      "kibandaongo",
      "kidzuvini",
      "kilibole",
      "kinango",
      "kokotoni",
      "kwale",
      "lutsangani",
      "mabesheni",
      "madewani",
      "majengo",
      "makobeni",
      "makuluni",
      "mariakani",
      "matuga",
      "mazera",
      "mazeras",
      "miatsani",
      "miatsiani",
      "mienzeni",
      "miguneni",
      "mikindani",
      "miloeni",
      "minyenzeni",
      "mioleni",
      "miyani",
      "miyenzeni",
      "mkanyeni",
      "mlola",
      "mnyenzeni",
      "mulunguni",
      "muugano",
      "mwache",
      "mwangani",
      "mwangaraba",
      "mwashanga",
      "mwehavikonje",
      "myenzeni",
      "nzora",
      "nzovuni",
      "peku",
      "ukunda",
      "vidziweni",
      "vigungani",
      "vikinduni",
      "vikolani",
      "vinyunduni",
      "viogato",
      "vistangani",
      "vitangani",
      "vyogato",
      "yapha",
      "yava",
      "yowani",
      "ziwani"
    ],
    "kisauni": [
      "bamburi",
      "bombolulu",
      "falcon",
      "junda",
      "kadongo",
      "kandongo",
      "kasauni",
      "kisauni",
      "magogoni",
      "magongoni",
      "majaoni",
      "manyani",
      "mjambere",
      "mjinga",
      "mlaleo",
      "mnyuchi",
      "mshomoro",
      "mshomoroni",
      "mtopanga",
      "mwakirunge",
      "mworoni",
      "nyali",
      "shanzu",
      "utange"
    ],
    "kitui": ["kitui", "mwingi"],
    "misc nairobi": [
      ",mlolongo",
      "56",
      "buru buru",
      "congo",
      "dagoreti",
      "dagoretti",
      "dandora",
      "donholm",
      "donhom",
      "east",
      "embakasi",
      "embakassi",
      "fuata",
      "gatina",
      "githurai",
      "huruma",
      "industrial",
      "jogoo",
      "juja",
      "kabete",
      "kabiro",
      "kangemi",
      "kariobangi",
      "kasarani",
      "kawangware",
      "kayole",
      "kenyatta",
      "kibera",
      "kibira",
      "kibra",
      "kikuyu",
      "kirembe",
      "kitengela",
      "kmoja",
      "kwangware",
      "kware",
      "landi",
      "langata",
      "limuru",
      "lindi",
      "makadara",
      "makina",
      "mathare",
      "mathere",
      "mlolongo",
      "muugano",
      "mwiki",
      "nairobi",
      "ngong",
      "olympic",
      "pipe",
      "ruiru",
      "sinai",
      "soweto",
      "stadium",
      "starehe",
      "tasia",
      "tassia",
      "thika",
      "toi market",
      "uchumi",
      "umoja",
      "west"
    ],
    "misc mombasa": [
      "bangla",
      "bangladesh",
      "changamwe",
      "diani",
      "jomvu",
      "kizingo",
      "likoni",
      "magongo",
      "makupa",
      "miritini",
      "mombasa",
      "mvita",
      "ngombeni",
      "ngómbeni",
      "ohuru",
      "old town",
      "ombeni",
      "tudor"
    ],
    "misc rural counties": [
      "bomet",
      "bungoma",
      "eldoret",
      "kajiado",
      "kakamega",
      "kericho",
      "kiambu",
      "kisii",
      "machakos",
      "makueni",
      "meru",
      "mwea",
      "nakuru",
      "nandi",
      "narok",
      "nyeri",
      "wote"
    ],
    "mukuru nairobi": [
      "hazina",
      "kambi",
      "kamongo",
      "kayaba",
      "kayba",
      "kingston",
      "kingstone",
      "korokocho",
      "lunga lunga",
      "lungalunga",
      "lungu",
      "masai",
      "mukuru",
      "owino road",
      "ruben",
      "rueben",
      "seigei",
      "sigei",
      "sinai",
      "south",
      "tetra",
      "tetrapak"
    ],
    "nyanza": [
      "busia",
      "hawinga",
      "homabay",
      "homaboy",
      "kisumu",
      "kusumu",
      "mbita",
      "migori",
      "mumias",
      "nyalenda",
      "nyalgunga",
      "rangala",
      "siaya",
      "uyoma"
    ],
    "other": ["other", "none", "unknown"]
  }
}
